{
     "op": "TRANSFORM",
     "datastore": "db1",
     "plan": {
             "op": "PROJECT",
             "operands": [
                     {
                             "op": "SELECT",
                             "operands": [
                                     { "op": "TABLEREF", "name": "users" }
                             ],
                             "filter": {
                                     "expr": "func",
                                     "function": ">",
                                     "operands": [
                                             { "expr": "colref", "colref": [ "id" ] },
                                             { "expr": "const", "datatype": "INT", "value": "30" }
                                     ]
                             }
                     }
             ],
             "columns": [
                     {
                             "name": "name",
                             "value": { "expr": "colref", "colref": [ "name" ] }
                     },
                     {
                             "name": "id",
                             "value": { "expr": "colref", "colref": [ "id" ] }
                     }
             ]
     },
     "signature": [ "STRING", "INT" ]
}

